Rental - Car Type Api: October 16, 2017, 5:50 pm
Response: Array
(
    [0] => Array
        (
            [car_type_id] => 2
            [car_type_name] => HATCHBACK
            [car_type_image] => uploads/car/editcar_2.png
            [city_id] => 56
            [base_fare] => 10 Per 4 Miles
            [ride_mode] => 1
            [currency_iso_code] => AUD
            [currency_unicode] => 0024
        )

    [1] => Array
        (
            [car_type_id] => 3
            [car_type_name] => LUXURY
            [car_type_image] => uploads/car/editcar_3.png
            [city_id] => 56
            [base_fare] => 100 Per 4 Miles
            [ride_mode] => 1
            [currency_iso_code] => AUD
            [currency_unicode] => 0024
        )

    [2] => Array
        (
            [car_type_id] => 4
            [car_type_name] => Mini
            [car_type_image] => uploads/car/editcar_4.png
            [city_id] => 56
            [base_fare] => 178 Per 4 Miles
            [ride_mode] => 1
            [currency_iso_code] => AUD
            [currency_unicode] => 0024
        )

    [3] => Array
        (
            [car_type_id] => 001
            [car_type_name] => Rental
            [car_type_image] => uploads/car/editcar_2.png
            [city_id] => 56
            [distance] => 
            [base_fare] => 
            [ride_mode] => 2
        )

)

city_name: Gurugram
latitude: 28.41216423273151
longitude: 77.04319708049297
-------------------------
Rental - Car Type Api: October 16, 2017, 6:52 pm
Response: Array
(
    [0] => Array
        (
            [car_type_id] => 2
            [car_type_name] => HATCHBACK
            [car_type_image] => uploads/car/editcar_2.png
            [city_id] => 56
            [base_fare] => 10 Per 4 Miles
            [ride_mode] => 1
            [currency_iso_code] => AUD
            [currency_unicode] => 0024
        )

    [1] => Array
        (
            [car_type_id] => 3
            [car_type_name] => LUXURY
            [car_type_image] => uploads/car/editcar_3.png
            [city_id] => 56
            [base_fare] => 100 Per 4 Miles
            [ride_mode] => 1
            [currency_iso_code] => AUD
            [currency_unicode] => 0024
        )

    [2] => Array
        (
            [car_type_id] => 4
            [car_type_name] => Mini
            [car_type_image] => uploads/car/editcar_4.png
            [city_id] => 56
            [base_fare] => 178 Per 4 Miles
            [ride_mode] => 1
            [currency_iso_code] => AUD
            [currency_unicode] => 0024
        )

    [3] => Array
        (
            [car_type_id] => 001
            [car_type_name] => Rental
            [car_type_image] => uploads/car/editcar_2.png
            [city_id] => 56
            [distance] => 
            [base_fare] => 
            [ride_mode] => 2
        )

)

city_name: Gurugram
latitude: 28.4121654122967
longitude: 77.04319909214973
-------------------------
