Driver App - Login driver Api: October 25, 2017, 4:22 pm
Response: Array
(
    [driver_id] => 5
    [company_id] => 0
    [commission] => 15
    [driver_name] => Justin Milla 
    [driver_email] => jkmilla24@gmail.com
    [driver_phone] => +61417961066
    [driver_image] => 
    [driver_password] => Justin240810
    [driver_token] => h6dOL2RNgFPtStwJ
    [total_payment_eraned] => 0
    [company_payment] => 0
    [driver_payment] => 
    [device_id] => 
    [flag] => 0
    [rating] => 
    [car_type_id] => 3
    [car_model_id] => 0
    [car_number] => DHV10M
    [city_id] => 130
    [register_date] => Tuesday, Oct 24
    [license] => 
    [license_expire] => 
    [rc] => 
    [rc_expire] => 
    [insurance] => 
    [insurance_expire] => 
    [other_docs] => 
    [driver_bank_name] => 
    [driver_account_number] => 
    [total_card_payment] => 0.00
    [total_cash_payment] => 0.00
    [amount_transfer_pending] => 0.00
    [current_lat] => 
    [current_long] => 
    [current_location] => 
    [last_update] => 
    [last_update_date] => 
    [completed_rides] => 0
    [reject_rides] => 0
    [cancelled_rides] => 0
    [login_logout] => 2
    [busy] => 0
    [online_offline] => 0
    [detail_status] => 0
    [payment_transfer] => 0
    [verification_date] => 
    [verification_status] => 0
    [unique_number] => 
    [driver_signup_date] => 2017-10-24
    [driver_status_image] => http://www.apporiotaxi.com/superadminpanel/images/icons8-Error-80.png
    [driver_status_message] => your document id in under process, You will be notified very soon
    [total_document_need] => 3
    [driver_admin_status] => 1
    [verfiy_document] => 0
    [city_name] => Sydney
    [city_latitude] => -33.8688197
    [city_longitude] => 151.2092955
    [currency_id] => 16
    [currency] => $
    [currency_iso_code] => 0
    [currency_unicode] => $
    [distance] => Km
    [city_name_arabic] => 
    [city_name_french] => 
    [city_admin_status] => 1
    [car_type_name] => LUXURY
    [car_model_name] => 
)

driver_email_phone: jkmilla24@gmail.com
driver_password: Justin240810
-------------------------
User App-view wallent Api: October 25, 2017, 4:25 pm
Response: Array
User: 3
-------------------------
